<?xml version="1.0" standalone="no"?>
<!DOCTYPE svg PUBLIC "-//W3C//DTD SVG 20010904//EN"
 "http://www.w3.org/TR/2001/REC-SVG-20010904/DTD/svg10.dtd">
<svg version="1.0" xmlns="http://www.w3.org/2000/svg"
 width="1280.000000pt" height="1280.000000pt" viewBox="0 0 1280.000000 1280.000000"
 preserveAspectRatio="xMidYMid meet">
<metadata>
Created by potrace 1.15, written by Peter Selinger 2001-2017
</metadata>
<g transform="translate(0.000000,1280.000000) scale(0.100000,-0.100000)"
fill="#2196f3" stroke="none">
<path d="M2479 12009 c-87 -13 -312 -66 -397 -95 -284 -94 -596 -324 -786
-578 -177 -236 -246 -384 -311 -666 -19 -80 -39 -189 -44 -242 -15 -133 -15
-7896 -1 -8022 24 -209 99 -472 179 -630 105 -206 294 -437 466 -571 230 -179
389 -258 654 -325 258 -65 -91 -60 4296 -60 4372 0 4031 -5 4290 59 230 57
372 121 569 259 234 164 428 390 556 647 92 185 158 422 180 647 7 69 10 1412
7 4058 -3 3717 -4 3960 -20 4040 -73 350 -141 521 -304 752 -104 149 -224 273
-364 377 -217 163 -371 237 -609 297 -279 69 80 64 -4320 63 -2192 -1 -4010
-5 -4041 -10z m7354 -1429 c260 -30 537 -213 677 -448 57 -97 107 -225 120
-307 7 -49 10 -1075 8 -3425 l-3 -3355 -29 -75 c-102 -269 -258 -450 -481
-560 -123 -60 -177 -78 -274 -91 -50 -6 -1237 -9 -3401 -7 l-3325 3 -104 37
c-304 109 -510 316 -618 623 l-28 80 0 3390 0 3390 23 70 c57 169 135 295 254
411 91 89 164 140 272 189 101 45 166 65 244 75 103 12 6560 12 6665 0z"/>
<path d="M7325 9996 c-78 -19 -180 -71 -249 -125 -33 -27 -194 -183 -356 -345
l-295 -296 -175 174 c-99 98 -203 192 -239 215 -184 118 -433 128 -631 26
-214 -111 -351 -354 -337 -595 12 -201 68 -301 306 -543 l175 -178 -422 -422
-422 -422 -167 166 c-93 91 -186 179 -208 196 -229 173 -573 159 -793 -33
-154 -135 -242 -365 -212 -556 29 -187 76 -265 301 -493 l178 -181 -240 -239
c-269 -268 -349 -360 -392 -454 -163 -360 42 -782 429 -881 145 -37 288 -20
434 51 81 40 99 56 378 332 l293 291 607 -607 607 -607 -281 -282 c-154 -156
-294 -306 -312 -333 -68 -109 -110 -276 -97 -389 10 -95 24 -144 67 -235 31
-65 57 -100 116 -161 90 -90 173 -140 287 -171 102 -28 266 -24 362 9 129 45
174 81 473 378 l285 283 255 -253 c241 -239 260 -255 340 -294 122 -60 192
-75 320 -70 125 6 218 34 316 99 202 131 320 384 285 609 -32 202 -69 258
-370 563 l-245 248 422 422 421 421 258 -255 c244 -242 263 -258 343 -298 110
-54 209 -75 321 -68 276 17 516 215 584 482 22 86 19 224 -6 315 -42 154 -69
191 -346 470 l-252 255 328 330 c345 347 377 387 423 518 29 86 36 258 14 347
-30 120 -80 206 -175 301 -67 67 -103 94 -163 123 -186 89 -379 87 -568 -5
-82 -41 -97 -54 -423 -378 l-338 -335 -607 607 -607 607 336 337 c295 297 340
346 371 408 63 124 73 166 72 305 0 108 -4 135 -27 198 -36 103 -81 173 -161
254 -54 54 -89 79 -160 113 -50 24 -115 48 -144 54 -69 14 -223 13 -287 -3z
m-107 -4203 l-423 -423 -608 607 -607 608 422 422 423 423 607 -608 608 -607
-422 -422z"/>
</g>
</svg>
